…
```
##    steps     date interval 
##     2304        0        0
```

2. Devise a strategy for filling in all of the missing values in the dataset.

```r
replace_mean <- function(num) replace(num, is.na(num), mean(num, na.rm = TRUE))
activity %>% group_by(interval) %>% mutate(steps = replace_mean(steps))
```

```
## # A tibble: 17,568 x 3
## # Groups:   interval [288]
##     steps date       interval
##     <dbl> <fct>         <int>
##  1 1.72   2012-10-01        0
##  2 0.340  2012-10-01        5
##  3 0.132  2012-10-01       10
##  4 0.151  2012-10-01       15
##  5 0.0755 2012-10-01       20
##  6 2.09   2012-10-01       25
##  7 0.528  2012-10-01       30
##  8 0.868  2012-10-01       35
##  9 0      2012-10-01       40
## 10 1.47   2012-10-01       45
## # ... with 17,558 more rows
```
…
